…
Tibbles

Tibbles are the tidyverse answer to data frames. They work in exactly the same way but have the following nice properties:

Pretty printing: When you print a large data frame in an interactive R session it will usually overrun the console with output. Printing a tibble is (by default) limited to the first ten rows. This lets you get the gist of what is going on without being overwhelmed. The number of columns displayed is also adapted to the width of the console so that the printed data is easily human readable.

# A tibble called gapminder from the gapminder package
gap <- gapminder::gapminder
# The same informaation but as a data.frame
gap_df <- as.data.frame(gap)

gap

## # A tibble: 1,704 x 6
##    country     continent  year lifeExp      pop gdpPercap
##    <fct>       <fct>     <int>   <dbl>    <int>     <dbl>
##  1 Afghanistan Asia       1952    28.8  8425333      779.
##  2 Afghanistan Asia       1957    30.3  9240934      821.
##  3 Afghanistan Asia       1962    32.0 10267083      853.
##  4 Afghanistan Asia       1967    34.0 11537966      836.
##  5 Afghanistan Asia       1972    36.1 13079460      740.
##  6 Afghanistan Asia       1977    38.4 14880372      786.
##  7 Afghanistan Asia       1982    39.9 12881816      978.
##  8 Afghanistan Asia       1987    40.8 13867957      852.
##  9 Afghanistan Asia       1992    41.7 16317921      649.
## 10 Afghanistan Asia       1997    41.8 22227415      635.
## # … with 1,694 more rows
…
The benefit of readability becomes more apparent when you need more a more complicated subset of the rows. To filter on multiple and conditions, separate each of these with a comma.

filter(gap, country %in% c('Rwanda','Germany', year >= 1979))
# vs 
gap_df[gap_df$country %in% c('Rwanda','Germany')  & gap_df$year >= 1979,]

Add columns with mutate
You can use mutate to construct a new column, potentially as a function of existing columns. For filtering based on complicated conditions, we can use mutate to construct a variable that acts as a filtering indicator.

mutate(gap, 
  keep_me = (year == 1952 & continent == 'Asia') | (country == 'Rwanda'))

## # A tibble: 1,704 x 7
##    country     continent  year lifeExp      pop gdpPercap keep_me
##    <fct>       <fct>     <int>   <dbl>    <int>     <dbl> <lgl>  
##  1 Afghanistan Asia       1952    28.8  8425333      779. TRUE   
##  2 Afghanistan Asia       1957    30.3  9240934      821. FALSE  
##  3 Afghanistan Asia       1962    32.0 10267083      853. FALSE  
##  4 Afghanistan Asia       1967    34.0 11537966      836. FALSE  
##  5 Afghanistan Asia       1972    36.1 13079460      740. FALSE  
##  6 Afghanistan Asia       1977    38.4 14880372      786. FALSE  
##  7 Afghanistan Asia       1982    39.9 12881816      978. FALSE  
##  8 Afghanistan Asia       1987    40.8 13867957      852. FALSE  
##  9 Afghanistan Asia       1992    41.7 16317921      649. FALSE  
## 10 Afghanistan Asia       1997    41.8 22227415      635. FALSE  
## # … with 1,694 more rows

Combine operations with a pipe %>%

gap %>% 
  mutate(keep_me = (year == 1952 & continent == 'Asia')) %>% 
  filter(keep_me == TRUE)

## # A tibble: 33 x 7
##    country          continent  year lifeExp       pop gdpPercap keep_me
##    <fct>            <fct>     <int>   <dbl>     <int>     <dbl> <lgl>  
##  1 Afghanistan      Asia       1952    28.8   8425333      779. TRUE   
##  2 Bahrain          Asia       1952    50.9    120447     9867. TRUE   
##  3 Bangladesh       Asia       1952    37.5  46886859      684. TRUE   
##  4 Cambodia         Asia       1952    39.4   4693836      368. TRUE   
##  5 China            Asia       1952    44   556263527      400. TRUE   
##  6 Hong Kong, China Asia       1952    61.0   2125900     3054. TRUE   
##  7 India            Asia       1952    37.4 372000000      547. TRUE   
##  8 Indonesia        Asia       1952    37.5  82052000      750. TRUE   
##  9 Iran             Asia       1952    44.9  17272000     3035. TRUE   
## 10 Iraq             Asia       1952    45.3   5441766     4130. TRUE   
## # … with 23 more rows
…
